{
  "artifactGenerations" : [ ],
  "artifactId" : "test",
  "groupId" : "test",
  "metamodelDependencies" : [ ],
  "projectDependencies" : [ ],
  "projectId" : "UAT-30185698",
  "projectStructureVersion" : {
    "extensionVersion" : 1,
    "version" : 11
  },
  "projectType" : "PROTOTYPE"
}